…
``` r
test_file_pan <- system.file(
  "xrf_files/panalytical_test.txt", 
  package = "paleoxrf"
)

read_panalytical_txt(test_file_pan)
#> # A tibble: 26 x 166
#>    ident date_time           Na_Iraw Na_Inet Na_conc Na_unit Mg_Iraw
#>    <chr> <dttm>                <dbl>   <dbl>   <dbl> <chr>     <dbl>
#>  1 poc-… 2019-01-10 14:45:47   -5.86   -5.86  4.07e3 ppm        8.73
#>  2 poc-… 2019-01-10 14:51:41  -26.7   -26.7   3.74e3 ppm      -56.8 
#>  3 poc-… 2019-01-10 14:56:32  -12.1   -12.1   3.97e3 ppm      -15.8 
#>  4 poc-… 2019-01-10 15:02:26  -60.8   -60.8   3.16e3 ppm      -52.0 
#>  5 poc-… 2019-01-10 15:08:10  -14.3   -14.3   3.92e3 ppm       22.0 
#>  6 poc-… 2019-01-10 15:14:01  -64.0   -64.0   3.18e3 ppm        8.65
#>  7 poc-… 2019-01-10 15:19:13 -162.   -162.    1.63e3 ppm     -403.  
#>  8 poc-… 2019-01-10 15:24:47 -265.   -265.   -7.94e0 ppm      274.  
#>  9 poc-… 2019-01-10 15:29:36  -11.4   -11.4   3.98e3 ppm        9.63
#> 10 poc-… 2019-01-10 15:34:26   -3.63   -3.63  4.11e3 ppm       11.2 
#> # … with 16 more rows, and 159 more variables: Mg_Inet <dbl>,
#> #   Mg_conc <dbl>, Mg_unit <chr>, Al_Iraw <dbl>, Al_Inet <dbl>,
#> #   Al_conc <dbl>, Al_unit <chr>, Si_Iraw <dbl>, Si_Inet <dbl>,
#> #   Si_conc <dbl>, Si_unit <chr>, P_Iraw <dbl>, P_Inet <dbl>,
#> #   P_conc <dbl>, P_unit <chr>, S_Iraw <dbl>, S_Inet <dbl>, S_conc <dbl>,
#> #   S_unit <chr>, Cl_Iraw <dbl>, Cl_Inet <dbl>, Cl_conc <dbl>,
#> #   Cl_unit <chr>, K_Iraw <dbl>, K_Inet <dbl>, K_conc <dbl>, K_unit <chr>,
#> #   Ca_Iraw <dbl>, Ca_Inet <dbl>, Ca_conc <dbl>, Ca_unit <chr>,
#> #   Sc_Iraw <dbl>, Sc_Inet <dbl>, Sc_conc <dbl>, Sc_unit <chr>,
…
